<svg xmlns="http://www.w3.org/2000/svg" width="120" height="120" viewBox="0 0 120 120">
  <g id="job_06_icon" transform="translate(-289 -4331)">
    <g id="グループ_3716" data-name="グループ 3716" transform="translate(59.908 176.215)">
      <g id="ラジカセアイコン1" transform="translate(251.092 4126.8)">
        <path id="パス_4964" data-name="パス 4964" d="M387.072,328.419a2.594,2.594,0,1,0,2.6,2.594A2.593,2.593,0,0,0,387.072,328.419Z" transform="translate(-323.742 -226.872)" fill="#f5f5f5"/>
        <path id="パス_4965" data-name="パス 4965" d="M97.257,328.419a2.594,2.594,0,1,0,2.595,2.594A2.594,2.594,0,0,0,97.257,328.419Z" transform="translate(-79.708 -226.872)" fill="#f5f5f5"/>
        <path id="パス_4966" data-name="パス 4966" d="M87.581,66.084a2.344,2.344,0,0,1,2.342-2.342h40.514a2.344,2.344,0,0,1,2.342,2.342V76.429h4.758V66.084a7.1,7.1,0,0,0-7.1-7.1H89.922a7.1,7.1,0,0,0-7.1,7.1V76.429h4.758V66.084Z" transform="translate(-69.74)" fill="#f5f5f5"/>
        <rect id="長方形_544" data-name="長方形 544" width="5.947" height="2.379" transform="translate(25.274 74.05)" fill="#f5f5f5"/>
        <rect id="長方形_545" data-name="長方形 545" width="5.947" height="2.379" transform="translate(33.402 74.05)" fill="#f5f5f5"/>
        <rect id="長方形_546" data-name="長方形 546" width="5.947" height="2.379" transform="translate(41.531 74.05)" fill="#f5f5f5"/>
        <rect id="長方形_547" data-name="長方形 547" width="5.947" height="2.379" transform="translate(49.659 74.05)" fill="#f5f5f5"/>
        <path id="パス_4967" data-name="パス 4967" d="M347.163,281.022a10.081,10.081,0,1,0,7.129,2.953A10.047,10.047,0,0,0,347.163,281.022Zm0,17.542a7.459,7.459,0,1,1,7.459-7.461A7.461,7.461,0,0,1,347.163,298.564Z" transform="translate(-283.833 -186.962)" fill="#f5f5f5"/>
        <path id="パス_4968" data-name="パス 4968" d="M57.354,281.022a10.081,10.081,0,1,0,7.129,2.953A10.048,10.048,0,0,0,57.354,281.022Zm0,17.542a7.459,7.459,0,1,1,7.459-7.461A7.461,7.461,0,0,1,57.354,298.564Z" transform="translate(-39.805 -186.962)" fill="#f5f5f5"/>
        <path id="パス_4969" data-name="パス 4969" d="M0,181.956v42.819H80.88V181.956Zm27.122,4.283a2.379,2.379,0,1,1-2.379,2.379A2.379,2.379,0,0,1,27.122,186.239Zm-9.119,0a2.379,2.379,0,1,1-2.379,2.379A2.379,2.379,0,0,1,18,186.239Zm-9.119,0A2.379,2.379,0,1,1,6.5,188.617,2.379,2.379,0,0,1,8.884,186.239Zm8.665,33.909A12.46,12.46,0,1,1,30.01,207.686,12.461,12.461,0,0,1,17.549,220.147Zm29.631-7.5H33.7v-10.7h13.48Zm0-21.449H33.7v-4.758h13.48Zm16.15,28.954A12.46,12.46,0,1,1,75.79,207.686,12.461,12.461,0,0,1,63.33,220.147Z" transform="translate(0 -103.545)" fill="#f5f5f5"/>
      </g>
      <g id="ラジカセアイコン1-2" data-name="ラジカセアイコン1" transform="translate(246.092 4121.8)">
        <path id="パス_4964-2" data-name="パス 4964" d="M387.072,328.419a2.594,2.594,0,1,0,2.6,2.594A2.593,2.593,0,0,0,387.072,328.419Z" transform="translate(-323.742 -226.872)" fill="none" stroke="#d13ecb" stroke-width="1"/>
        <path id="パス_4965-2" data-name="パス 4965" d="M97.257,328.419a2.594,2.594,0,1,0,2.595,2.594A2.594,2.594,0,0,0,97.257,328.419Z" transform="translate(-79.708 -226.872)" fill="none" stroke="#d13ecb" stroke-width="1"/>
        <path id="パス_4966-2" data-name="パス 4966" d="M87.581,66.084a2.344,2.344,0,0,1,2.342-2.342h40.514a2.344,2.344,0,0,1,2.342,2.342V76.429h4.758V66.084a7.1,7.1,0,0,0-7.1-7.1H89.922a7.1,7.1,0,0,0-7.1,7.1V76.429h4.758V66.084Z" transform="translate(-69.74)" fill="none" stroke="#d13ecb" stroke-width="1"/>
        <rect id="長方形_544-2" data-name="長方形 544" width="5.947" height="2.379" transform="translate(25.274 74.05)" fill="none" stroke="#d13ecb" stroke-width="1"/>
        <rect id="長方形_545-2" data-name="長方形 545" width="5.947" height="2.379" transform="translate(33.402 74.05)" fill="none" stroke="#d13ecb" stroke-width="1"/>
        <rect id="長方形_546-2" data-name="長方形 546" width="5.947" height="2.379" transform="translate(41.531 74.05)" fill="none" stroke="#d13ecb" stroke-width="1"/>
        <rect id="長方形_547-2" data-name="長方形 547" width="5.947" height="2.379" transform="translate(49.659 74.05)" fill="none" stroke="#d13ecb" stroke-width="1"/>
        <path id="パス_4967-2" data-name="パス 4967" d="M347.163,281.022a10.081,10.081,0,1,0,7.129,2.953A10.047,10.047,0,0,0,347.163,281.022Zm0,17.542a7.459,7.459,0,1,1,7.459-7.461A7.461,7.461,0,0,1,347.163,298.564Z" transform="translate(-283.833 -186.962)" fill="none" stroke="#d13ecb" stroke-width="1"/>
        <path id="パス_4968-2" data-name="パス 4968" d="M57.354,281.022a10.081,10.081,0,1,0,7.129,2.953A10.048,10.048,0,0,0,57.354,281.022Zm0,17.542a7.459,7.459,0,1,1,7.459-7.461A7.461,7.461,0,0,1,57.354,298.564Z" transform="translate(-39.805 -186.962)" fill="none" stroke="#d13ecb" stroke-width="1"/>
        <path id="パス_4969-2" data-name="パス 4969" d="M0,181.956v42.819H80.88V181.956Zm27.122,4.283a2.379,2.379,0,1,1-2.379,2.379A2.379,2.379,0,0,1,27.122,186.239Zm-9.119,0a2.379,2.379,0,1,1-2.379,2.379A2.379,2.379,0,0,1,18,186.239Zm-9.119,0A2.379,2.379,0,1,1,6.5,188.617,2.379,2.379,0,0,1,8.884,186.239Zm8.665,33.909A12.46,12.46,0,1,1,30.01,207.686,12.461,12.461,0,0,1,17.549,220.147Zm29.631-7.5H33.7v-10.7h13.48Zm0-21.449H33.7v-4.758h13.48Zm16.15,28.954A12.46,12.46,0,1,1,75.79,207.686,12.461,12.461,0,0,1,63.33,220.147Z" transform="translate(0 -103.545)" fill="none" stroke="#d13ecb" stroke-width="1"/>
      </g>
    </g>
    <rect id="長方形_591" data-name="長方形 591" width="120" height="120" transform="translate(289 4331)" fill="none"/>
  </g>
</svg>
